{"message": "Some new task2", "done": "False", "id": "5", "created": "2017-07-31 15:45:28.964204"}
{"message": "Hava anghila", "done": "False", "id": "1", "created": "2017-07-31 15:58:20.229109"}
{"message": "Do a barrel roll", "done": "False", "id": "2", "created": "2017-07-31 16:03:45.077968"}
{"message": "Ceva2", "done": "False", "id": "3", "created": "2017-07-31 23:51:17.209591"}
